%YAML 1.1
%TAG !u! tag:unity3d.com,2011:
--- !u!114 &11400000
MonoBehaviour:
  m_ObjectHideFlags: 0
  m_CorrespondingSourceObject: {fileID: 0}
  m_PrefabInstance: {fileID: 0}
  m_PrefabAsset: {fileID: 0}
  m_GameObject: {fileID: 0}
  m_Enabled: 1
  m_EditorHideFlags: 0
  m_Script: {fileID: 11500000, guid: d426e044d90f3574a95f79631b82e290, type: 3}
  m_Name: BattleshipConstruction
  m_EditorClassIdentifier: 
  image: {fileID: 21300000, guid: 2545de7be3f876e4d97ce232b43b7faf, type: 3}
  displayName: Battleship Construction
  description: {fileID: 4900000, guid: e35d6a60a3a0a1042900835ce2bf4d1d, type: 3}
  difficulty: 60
  requiresResearch:
  - {fileID: 11400000, guid: c6b1d7f32959ca644a0881a2d4ab5be5, type: 2}
  - {fileID: 11400000, guid: d3f2f607e50ad40409daec6330be88dc, type: 2}
  - {fileID: 11400000, guid: 80c914e277399a14c944ed0bb10dc510, type: 2}
  unlocksRecipes:
  - {fileID: 11400000, guid: 519cf0e75b8152e40ac5aa44b966f3b3, type: 2}
  unlocksLogs: []
