%YAML 1.1
%TAG !u! tag:unity3d.com,2011:
--- !u!114 &11400000
MonoBehaviour:
  m_ObjectHideFlags: 0
  m_CorrespondingSourceObject: {fileID: 0}
  m_PrefabInstance: {fileID: 0}
  m_PrefabAsset: {fileID: 0}
  m_GameObject: {fileID: 0}
  m_Enabled: 1
  m_EditorHideFlags: 0
  m_Script: {fileID: 11500000, guid: d426e044d90f3574a95f79631b82e290, type: 3}
  m_Name: DroneConstruction
  m_EditorClassIdentifier: 
  image: {fileID: 21300000, guid: a4b43c00724d79048afd164a4aa8b7f4, type: 3}
  displayName: Drone Construction
  description: {fileID: 4900000, guid: d740dbc76bd5a1f468f2bd1df9d30bc2, type: 3}
  difficulty: 30
  requiresResearch:
  - {fileID: 11400000, guid: bb579dbe0a9fd834e8205473a93f7fb4, type: 2}
  unlocksRecipes:
  - {fileID: 11400000, guid: 5a0e061e63c1db04a91e98ccfc557ac8, type: 2}
  - {fileID: 11400000, guid: 2891b342bd5068046914360bce957099, type: 2}
  - {fileID: 11400000, guid: ed017cb312a4f304ca2000381d7729f3, type: 2}
  unlocksLogs:
  - {fileID: 11400000, guid: ebfba9adf39dff34ab479d7587b7dd9a, type: 2}
