%YAML 1.1
%TAG !u! tag:unity3d.com,2011:
--- !u!114 &11400000
MonoBehaviour:
  m_ObjectHideFlags: 0
  m_CorrespondingSourceObject: {fileID: 0}
  m_PrefabInstance: {fileID: 0}
  m_PrefabAsset: {fileID: 0}
  m_GameObject: {fileID: 0}
  m_Enabled: 1
  m_EditorHideFlags: 0
  m_Script: {fileID: 11500000, guid: d426e044d90f3574a95f79631b82e290, type: 3}
  m_Name: GuidedBalllistics
  m_EditorClassIdentifier: 
  image: {fileID: 21300000, guid: bbafd1100ddf1d946887a7dbdcde7be6, type: 3}
  displayName: Guided Ballistics
  description: {fileID: 4900000, guid: 25477ad56745f144c885b07aea1145ad, type: 3}
  difficulty: 25
  requiresResearch:
  - {fileID: 11400000, guid: 81d5d9e9da952e34085dcb942376de0c, type: 2}
  unlocksRecipes: []
  unlocksLogs: []
