%YAML 1.1
%TAG !u! tag:unity3d.com,2011:
--- !u!114 &11400000
MonoBehaviour:
  m_ObjectHideFlags: 0
  m_CorrespondingSourceObject: {fileID: 0}
  m_PrefabInstance: {fileID: 0}
  m_PrefabAsset: {fileID: 0}
  m_GameObject: {fileID: 0}
  m_Enabled: 1
  m_EditorHideFlags: 0
  m_Script: {fileID: 11500000, guid: d426e044d90f3574a95f79631b82e290, type: 3}
  m_Name: SmallCraftConstruction
  m_EditorClassIdentifier: 
  image: {fileID: 21300000, guid: e5a2c1d3ff1c7094e8a85298fd515a9f, type: 3}
  displayName: Small Craft Construction
  description: {fileID: 4900000, guid: 76c9897ee56e1da48b8215e8e340099f, type: 3}
  difficulty: 30
  requiresResearch:
  - {fileID: 11400000, guid: 81d5d9e9da952e34085dcb942376de0c, type: 2}
  unlocksRecipes: []
  unlocksLogs: []
