%YAML 1.1
%TAG !u! tag:unity3d.com,2011:
--- !u!114 &11400000
MonoBehaviour:
  m_ObjectHideFlags: 0
  m_CorrespondingSourceObject: {fileID: 0}
  m_PrefabInstance: {fileID: 0}
  m_PrefabAsset: {fileID: 0}
  m_GameObject: {fileID: 0}
  m_Enabled: 1
  m_EditorHideFlags: 0
  m_Script: {fileID: 11500000, guid: d0611c64dfc4603478b3691ad5c094f3, type: 3}
  m_Name: Human.Drone.Missile
  m_EditorClassIdentifier: 
  image: {fileID: 21300000, guid: cc904ba40264c6d45b94cd8c7a5f8532, type: 3}
  displayName: Missile Drone
  description: {fileID: 4900000, guid: 4f4e7e2c3ecbce442ba25fd956a8b05a, type: 3}
  buildTime: 30
  logicType: Fleet.ShipConstruction
  requireShipyard: 0
  inorganicCost: 100
  organicCost: 20
  exoticCost: 5
