%YAML 1.1
%TAG !u! tag:unity3d.com,2011:
--- !u!114 &11400000
MonoBehaviour:
  m_ObjectHideFlags: 0
  m_CorrespondingSourceObject: {fileID: 0}
  m_PrefabInstance: {fileID: 0}
  m_PrefabAsset: {fileID: 0}
  m_GameObject: {fileID: 0}
  m_Enabled: 1
  m_EditorHideFlags: 0
  m_Script: {fileID: 11500000, guid: bc87de6ccbf32694e90b65868963949b, type: 3}
  m_Name: Human.Static.BlasterTurret
  m_EditorClassIdentifier: 
  type: 6
  faction: 0
  capabilities: 1
  icon: {fileID: 21300000, guid: a4b43c00724d79048afd164a4aa8b7f4, type: 3}
  view: {fileID: 3416580844580482365, guid: 2c118e5fae54d844fa4393eab4c34b7e, type: 3}
  stats:
    size: 2
    jumpWell: 10
    jumpSpeed: 10
    jumpCost: 0
    acceleration_mps: 0
    maxSpeed_mps: 0
    turnSpeedDeg: 360
    miningDist: 0
    inorganicMiningMult: 0
    organicMiningMult: 0
    exoticMiningMult: 0
    miningFx: {fileID: 0}
    weapons:
    - {fileID: 11400000, guid: 0620533d456f35644b8ce196b5f17a82, type: 2}
    shieldRecharge: 2
    maxShield: 200
    maxArmor: 200
    maxHull: 200
    maxFuel: 0
    storageCapacity: 0
  deathFx: {fileID: 1965343156803978, guid: aa8d6482d70a23445b4b2a928ed1b845, type: 3}
