%YAML 1.1
%TAG !u! tag:unity3d.com,2011:
--- !u!114 &11400000
MonoBehaviour:
  m_ObjectHideFlags: 0
  m_CorrespondingSourceObject: {fileID: 0}
  m_PrefabInstance: {fileID: 0}
  m_PrefabAsset: {fileID: 0}
  m_GameObject: {fileID: 0}
  m_Enabled: 1
  m_EditorHideFlags: 0
  m_Script: {fileID: 11500000, guid: bc87de6ccbf32694e90b65868963949b, type: 3}
  m_Name: Human.Drone.Mining
  m_EditorClassIdentifier: 
  type: 5
  faction: 0
  capabilities: 14
  icon: {fileID: 21300000, guid: bfea0738f766f684aa908cea96532fb2, type: 3}
  view: {fileID: 3225266347441522879, guid: 0d66eba225cf0ff468344dbd1425d5cb, type: 3}
  stats:
    size: 2
    jumpWell: 10
    jumpSpeed: 1
    jumpCost: 0
    acceleration_mps: 25
    maxSpeed_mps: 100
    turnSpeedDeg: 180
    miningDist: 20
    inorganicMiningMult: 0.25
    organicMiningMult: 0.5
    exoticMiningMult: 1
    miningFx: {fileID: 3692620913666798194, guid: cfe1bf4597441bb4298c7fa3321a5184, type: 3}
    weapons: []
    shieldRecharge: 2
    maxShield: 50
    maxArmor: 50
    maxHull: 30
    maxFuel: 100
    storageCapacity: 0
  deathFx: {fileID: 1965343156803978, guid: aa8d6482d70a23445b4b2a928ed1b845, type: 3}
