%YAML 1.1
%TAG !u! tag:unity3d.com,2011:
--- !u!114 &11400000
MonoBehaviour:
  m_ObjectHideFlags: 0
  m_CorrespondingSourceObject: {fileID: 0}
  m_PrefabInstance: {fileID: 0}
  m_PrefabAsset: {fileID: 0}
  m_GameObject: {fileID: 0}
  m_Enabled: 1
  m_EditorHideFlags: 0
  m_Script: {fileID: 11500000, guid: bc87de6ccbf32694e90b65868963949b, type: 3}
  m_Name: Human.Cruiser.Missile
  m_EditorClassIdentifier: 
  type: 1
  faction: 0
  capabilities: 1
  icon: {fileID: 21300000, guid: 920b8225a0695174fb24e7a88cb11492, type: 3}
  view: {fileID: 2251434628882834237, guid: dea84877ec897184ea2f45f0de120dc5, type: 3}
  stats:
    size: 2
    jumpWell: 25
    jumpSpeed: 2
    jumpCost: 0
    acceleration_mps: 15
    maxSpeed_mps: 80
    turnSpeedDeg: 100
    miningDist: 1
    inorganicMiningMult: 1
    organicMiningMult: 1
    exoticMiningMult: 1
    miningFx: {fileID: 0}
    weapons:
    - {fileID: 11400000, guid: 7ef7344a516dd014faea382997dabd6f, type: 2}
    shieldRecharge: 2.5
    maxShield: 100
    maxArmor: 100
    maxHull: 100
    maxFuel: 100
    storageCapacity: 0
  deathFx: {fileID: 1965343156803978, guid: aa8d6482d70a23445b4b2a928ed1b845, type: 3}
