%YAML 1.1
%TAG !u! tag:unity3d.com,2011:
--- !u!1 &114632474
GameObject:
  m_ObjectHideFlags: 0
  m_CorrespondingSourceObject: {fileID: 0}
  m_PrefabInstance: {fileID: 0}
  m_PrefabAsset: {fileID: 0}
  serializedVersion: 6
  m_Component:
  - component: {fileID: 114632475}
  - component: {fileID: 6180865422898227990}
  m_Layer: 0
  m_Name: Asteroid.001
  m_TagString: Untagged
  m_Icon: {fileID: 0}
  m_NavMeshLayer: 0
  m_StaticEditorFlags: 0
  m_IsActive: 1
--- !u!4 &114632475
Transform:
  m_ObjectHideFlags: 0
  m_CorrespondingSourceObject: {fileID: 0}
  m_PrefabInstance: {fileID: 0}
  m_PrefabAsset: {fileID: 0}
  m_GameObject: {fileID: 114632474}
  m_LocalRotation: {x: 0, y: 0, z: 0, w: 1}
  m_LocalPosition: {x: 0, y: 0, z: 0}
  m_LocalScale: {x: 1, y: 1, z: 1}
  m_Children:
  - {fileID: 7546468649294094887}
  m_Father: {fileID: 0}
  m_RootOrder: 0
  m_LocalEulerAnglesHint: {x: 0, y: 0, z: 0}
--- !u!114 &6180865422898227990
MonoBehaviour:
  m_ObjectHideFlags: 0
  m_CorrespondingSourceObject: {fileID: 0}
  m_PrefabInstance: {fileID: 0}
  m_PrefabAsset: {fileID: 0}
  m_GameObject: {fileID: 114632474}
  m_Enabled: 1
  m_EditorHideFlags: 0
  m_Script: {fileID: 11500000, guid: 320908f3b5a013e4199da1deb22c425b, type: 3}
  m_Name: 
  m_EditorClassIdentifier: 
  sphereCollider: {fileID: 0}
  render: {fileID: 8729873395218353442}
  icon: {fileID: 21300000, guid: 95d13ea67a4235d4b916cffd461e2e48, type: 3}
--- !u!1001 &730601963
PrefabInstance:
  m_ObjectHideFlags: 0
  serializedVersion: 2
  m_Modification:
    m_TransformParent: {fileID: 114632475}
    m_Modifications:
    - target: {fileID: 5487316745028382431, guid: 49c82565d0e59094186198e66e5041fb, type: 3}
      propertyPath: m_Name
      value: Asteroid.001
      objectReference: {fileID: 0}
    - target: {fileID: 7546468648631139276, guid: 49c82565d0e59094186198e66e5041fb, type: 3}
      propertyPath: m_RootOrder
      value: 0
      objectReference: {fileID: 0}
    - target: {fileID: 7546468648631139276, guid: 49c82565d0e59094186198e66e5041fb, type: 3}
      propertyPath: m_LocalPosition.x
      value: 0
      objectReference: {fileID: 0}
    - target: {fileID: 7546468648631139276, guid: 49c82565d0e59094186198e66e5041fb, type: 3}
      propertyPath: m_LocalPosition.y
      value: 0
      objectReference: {fileID: 0}
    - target: {fileID: 7546468648631139276, guid: 49c82565d0e59094186198e66e5041fb, type: 3}
      propertyPath: m_LocalPosition.z
      value: 0
      objectReference: {fileID: 0}
    - target: {fileID: 7546468648631139276, guid: 49c82565d0e59094186198e66e5041fb, type: 3}
      propertyPath: m_LocalRotation.w
      value: 0.7071067
      objectReference: {fileID: 0}
    - target: {fileID: 7546468648631139276, guid: 49c82565d0e59094186198e66e5041fb, type: 3}
      propertyPath: m_LocalRotation.x
      value: -0.7071068
      objectReference: {fileID: 0}
    - target: {fileID: 7546468648631139276, guid: 49c82565d0e59094186198e66e5041fb, type: 3}
      propertyPath: m_LocalRotation.y
      value: -0
      objectReference: {fileID: 0}
    - target: {fileID: 7546468648631139276, guid: 49c82565d0e59094186198e66e5041fb, type: 3}
      propertyPath: m_LocalRotation.z
      value: -0
      objectReference: {fileID: 0}
    - target: {fileID: 7546468648631139276, guid: 49c82565d0e59094186198e66e5041fb, type: 3}
      propertyPath: m_LocalEulerAnglesHint.x
      value: 0
      objectReference: {fileID: 0}
    - target: {fileID: 7546468648631139276, guid: 49c82565d0e59094186198e66e5041fb, type: 3}
      propertyPath: m_LocalEulerAnglesHint.y
      value: 0
      objectReference: {fileID: 0}
    - target: {fileID: 7546468648631139276, guid: 49c82565d0e59094186198e66e5041fb, type: 3}
      propertyPath: m_LocalEulerAnglesHint.z
      value: 0
      objectReference: {fileID: 0}
    m_RemovedComponents:
    - {fileID: 198862801697483806, guid: 49c82565d0e59094186198e66e5041fb, type: 3}
  m_SourcePrefab: {fileID: 100100000, guid: 49c82565d0e59094186198e66e5041fb, type: 3}
--- !u!4 &7546468649294094887 stripped
Transform:
  m_CorrespondingSourceObject: {fileID: 7546468648631139276, guid: 49c82565d0e59094186198e66e5041fb, type: 3}
  m_PrefabInstance: {fileID: 730601963}
  m_PrefabAsset: {fileID: 0}
--- !u!23 &8729873395218353442 stripped
MeshRenderer:
  m_CorrespondingSourceObject: {fileID: 8729873394873636041, guid: 49c82565d0e59094186198e66e5041fb, type: 3}
  m_PrefabInstance: {fileID: 730601963}
  m_PrefabAsset: {fileID: 0}
