%YAML 1.1
%TAG !u! tag:unity3d.com,2011:
--- !u!1045 &1
EditorBuildSettings:
  m_ObjectHideFlags: 0
  serializedVersion: 2
  m_Scenes:
  - enabled: 1
    path: Assets/scenes/00.title/00.TitleScene.unity
    guid: 84e0e551e424385419141aacd3e33a35
  - enabled: 1
    path: Assets/scenes/01.intro/01.Intro.unity
    guid: 4b9e1f0e8198d0845bb649f3af37a3b9
  - enabled: 1
    path: Assets/scenes/02.space/02.SpaceScene.unity
    guid: 8d30ebcf7accee349a9003ab835bec3c
  - enabled: 1
    path: Assets/scenes/03.winscreen/03.winscreen.unity
    guid: 0668af4b7851a6540962dc89e006663d
  m_configObjects: {}
