%YAML 1.1
%TAG !u! tag:unity3d.com,2011:
--- !u!1 &758178255
GameObject:
  m_ObjectHideFlags: 0
  m_CorrespondingSourceObject: {fileID: 0}
  m_PrefabInstance: {fileID: 0}
  m_PrefabAsset: {fileID: 0}
  serializedVersion: 6
  m_Component:
  - component: {fileID: 758178256}
  - component: {fileID: 4861924281150655541}
  m_Layer: 0
  m_Name: Human.BattleshipBody
  m_TagString: Untagged
  m_Icon: {fileID: 0}
  m_NavMeshLayer: 0
  m_StaticEditorFlags: 0
  m_IsActive: 1
--- !u!4 &758178256
Transform:
  m_ObjectHideFlags: 0
  m_CorrespondingSourceObject: {fileID: 0}
  m_PrefabInstance: {fileID: 0}
  m_PrefabAsset: {fileID: 0}
  m_GameObject: {fileID: 758178255}
  m_LocalRotation: {x: 0, y: 0, z: 0, w: 1}
  m_LocalPosition: {x: 0, y: 0, z: 0}
  m_LocalScale: {x: 1, y: 1, z: 1}
  m_Children:
  - {fileID: 2841487044428352696}
  m_Father: {fileID: 0}
  m_RootOrder: 0
  m_LocalEulerAnglesHint: {x: 0, y: 0, z: 0}
--- !u!114 &4861924281150655541
MonoBehaviour:
  m_ObjectHideFlags: 0
  m_CorrespondingSourceObject: {fileID: 0}
  m_PrefabInstance: {fileID: 0}
  m_PrefabAsset: {fileID: 0}
  m_GameObject: {fileID: 758178255}
  m_Enabled: 1
  m_EditorHideFlags: 0
  m_Script: {fileID: 11500000, guid: 97dc7dad12d553f41adb55e40f4e5cef, type: 3}
  m_Name: 
  m_EditorClassIdentifier: 
  transitFxPrefab: {fileID: 4194818929984649032, guid: d295508a5a32fe34290f20ea18cdb633, type: 3}
  mesh: {fileID: 1179863655146242013}
  offsetRot: {x: 0, y: 0, z: 0, w: 1}
--- !u!1001 &337269973
PrefabInstance:
  m_ObjectHideFlags: 0
  serializedVersion: 2
  m_Modification:
    m_TransformParent: {fileID: 758178256}
    m_Modifications:
    - target: {fileID: 1179863655483239176, guid: 86d6de5b7d9aa904fab7dddd82e094e9, type: 3}
      propertyPath: m_Name
      value: Human.BattleshipMesh
      objectReference: {fileID: 0}
    - target: {fileID: 2841487044094236781, guid: 86d6de5b7d9aa904fab7dddd82e094e9, type: 3}
      propertyPath: m_RootOrder
      value: 0
      objectReference: {fileID: 0}
    - target: {fileID: 2841487044094236781, guid: 86d6de5b7d9aa904fab7dddd82e094e9, type: 3}
      propertyPath: m_LocalPosition.x
      value: 0
      objectReference: {fileID: 0}
    - target: {fileID: 2841487044094236781, guid: 86d6de5b7d9aa904fab7dddd82e094e9, type: 3}
      propertyPath: m_LocalPosition.y
      value: 0
      objectReference: {fileID: 0}
    - target: {fileID: 2841487044094236781, guid: 86d6de5b7d9aa904fab7dddd82e094e9, type: 3}
      propertyPath: m_LocalPosition.z
      value: 0
      objectReference: {fileID: 0}
    - target: {fileID: 2841487044094236781, guid: 86d6de5b7d9aa904fab7dddd82e094e9, type: 3}
      propertyPath: m_LocalRotation.w
      value: 0
      objectReference: {fileID: 0}
    - target: {fileID: 2841487044094236781, guid: 86d6de5b7d9aa904fab7dddd82e094e9, type: 3}
      propertyPath: m_LocalRotation.x
      value: 0
      objectReference: {fileID: 0}
    - target: {fileID: 2841487044094236781, guid: 86d6de5b7d9aa904fab7dddd82e094e9, type: 3}
      propertyPath: m_LocalRotation.y
      value: 0.7072302
      objectReference: {fileID: 0}
    - target: {fileID: 2841487044094236781, guid: 86d6de5b7d9aa904fab7dddd82e094e9, type: 3}
      propertyPath: m_LocalRotation.z
      value: 0.7069834
      objectReference: {fileID: 0}
    - target: {fileID: 2841487044094236781, guid: 86d6de5b7d9aa904fab7dddd82e094e9, type: 3}
      propertyPath: m_LocalEulerAnglesHint.x
      value: -89.98
      objectReference: {fileID: 0}
    - target: {fileID: 2841487044094236781, guid: 86d6de5b7d9aa904fab7dddd82e094e9, type: 3}
      propertyPath: m_LocalEulerAnglesHint.y
      value: 180
      objectReference: {fileID: 0}
    - target: {fileID: 2841487044094236781, guid: 86d6de5b7d9aa904fab7dddd82e094e9, type: 3}
      propertyPath: m_LocalEulerAnglesHint.z
      value: 0
      objectReference: {fileID: 0}
    m_RemovedComponents: []
  m_SourcePrefab: {fileID: 100100000, guid: 86d6de5b7d9aa904fab7dddd82e094e9, type: 3}
--- !u!1 &1179863655146242013 stripped
GameObject:
  m_CorrespondingSourceObject: {fileID: 1179863655483239176, guid: 86d6de5b7d9aa904fab7dddd82e094e9, type: 3}
  m_PrefabInstance: {fileID: 337269973}
  m_PrefabAsset: {fileID: 0}
--- !u!4 &2841487044428352696 stripped
Transform:
  m_CorrespondingSourceObject: {fileID: 2841487044094236781, guid: 86d6de5b7d9aa904fab7dddd82e094e9, type: 3}
  m_PrefabInstance: {fileID: 337269973}
  m_PrefabAsset: {fileID: 0}
