%YAML 1.1
%TAG !u! tag:unity3d.com,2011:
--- !u!1 &7911625656631799025
GameObject:
  m_ObjectHideFlags: 0
  m_CorrespondingSourceObject: {fileID: 0}
  m_PrefabInstance: {fileID: 0}
  m_PrefabAsset: {fileID: 0}
  serializedVersion: 6
  m_Component:
  - component: {fileID: 7911625656631799026}
  - component: {fileID: 2251434628882834237}
  m_Layer: 0
  m_Name: Human.CruiserBody.002
  m_TagString: Untagged
  m_Icon: {fileID: 0}
  m_NavMeshLayer: 0
  m_StaticEditorFlags: 0
  m_IsActive: 1
--- !u!4 &7911625656631799026
Transform:
  m_ObjectHideFlags: 0
  m_CorrespondingSourceObject: {fileID: 0}
  m_PrefabInstance: {fileID: 0}
  m_PrefabAsset: {fileID: 0}
  m_GameObject: {fileID: 7911625656631799025}
  m_LocalRotation: {x: 0, y: 0, z: 0, w: 1}
  m_LocalPosition: {x: 0, y: 0, z: 0}
  m_LocalScale: {x: 1, y: 1, z: 1}
  m_Children:
  - {fileID: 4875342973753798771}
  m_Father: {fileID: 0}
  m_RootOrder: 0
  m_LocalEulerAnglesHint: {x: 0, y: 0, z: 0}
--- !u!114 &2251434628882834237
MonoBehaviour:
  m_ObjectHideFlags: 0
  m_CorrespondingSourceObject: {fileID: 0}
  m_PrefabInstance: {fileID: 0}
  m_PrefabAsset: {fileID: 0}
  m_GameObject: {fileID: 7911625656631799025}
  m_Enabled: 1
  m_EditorHideFlags: 0
  m_Script: {fileID: 11500000, guid: 97dc7dad12d553f41adb55e40f4e5cef, type: 3}
  m_Name: 
  m_EditorClassIdentifier: 
  transitFxPrefab: {fileID: 4194818929984649032, guid: d295508a5a32fe34290f20ea18cdb633, type: 3}
  mesh: {fileID: 5215847725510187005}
  offsetRot: {x: 0, y: 0, z: 0, w: 1}
--- !u!1001 &881206159237535824
PrefabInstance:
  m_ObjectHideFlags: 0
  serializedVersion: 2
  m_Modification:
    m_TransformParent: {fileID: 7911625656631799026}
    m_Modifications:
    - target: {fileID: 4924903389540454317, guid: d1641db9f0fcff048999e90726db6998, type: 3}
      propertyPath: m_Name
      value: Human.CruiserMesh.002
      objectReference: {fileID: 0}
    - target: {fileID: 5733679152754059299, guid: d1641db9f0fcff048999e90726db6998, type: 3}
      propertyPath: m_RootOrder
      value: 0
      objectReference: {fileID: 0}
    - target: {fileID: 5733679152754059299, guid: d1641db9f0fcff048999e90726db6998, type: 3}
      propertyPath: m_LocalScale.y
      value: 100
      objectReference: {fileID: 0}
    - target: {fileID: 5733679152754059299, guid: d1641db9f0fcff048999e90726db6998, type: 3}
      propertyPath: m_LocalScale.z
      value: 40
      objectReference: {fileID: 0}
    - target: {fileID: 5733679152754059299, guid: d1641db9f0fcff048999e90726db6998, type: 3}
      propertyPath: m_LocalPosition.x
      value: 0
      objectReference: {fileID: 0}
    - target: {fileID: 5733679152754059299, guid: d1641db9f0fcff048999e90726db6998, type: 3}
      propertyPath: m_LocalPosition.y
      value: 0
      objectReference: {fileID: 0}
    - target: {fileID: 5733679152754059299, guid: d1641db9f0fcff048999e90726db6998, type: 3}
      propertyPath: m_LocalPosition.z
      value: 0
      objectReference: {fileID: 0}
    - target: {fileID: 5733679152754059299, guid: d1641db9f0fcff048999e90726db6998, type: 3}
      propertyPath: m_LocalRotation.w
      value: 0
      objectReference: {fileID: 0}
    - target: {fileID: 5733679152754059299, guid: d1641db9f0fcff048999e90726db6998, type: 3}
      propertyPath: m_LocalRotation.x
      value: 0
      objectReference: {fileID: 0}
    - target: {fileID: 5733679152754059299, guid: d1641db9f0fcff048999e90726db6998, type: 3}
      propertyPath: m_LocalRotation.y
      value: 0.7071068
      objectReference: {fileID: 0}
    - target: {fileID: 5733679152754059299, guid: d1641db9f0fcff048999e90726db6998, type: 3}
      propertyPath: m_LocalRotation.z
      value: 0.7071068
      objectReference: {fileID: 0}
    - target: {fileID: 5733679152754059299, guid: d1641db9f0fcff048999e90726db6998, type: 3}
      propertyPath: m_LocalEulerAnglesHint.x
      value: -90
      objectReference: {fileID: 0}
    - target: {fileID: 5733679152754059299, guid: d1641db9f0fcff048999e90726db6998, type: 3}
      propertyPath: m_LocalEulerAnglesHint.y
      value: 180
      objectReference: {fileID: 0}
    - target: {fileID: 5733679152754059299, guid: d1641db9f0fcff048999e90726db6998, type: 3}
      propertyPath: m_LocalEulerAnglesHint.z
      value: 0
      objectReference: {fileID: 0}
    m_RemovedComponents: []
  m_SourcePrefab: {fileID: 100100000, guid: d1641db9f0fcff048999e90726db6998, type: 3}
--- !u!1 &5215847725510187005 stripped
GameObject:
  m_CorrespondingSourceObject: {fileID: 4924903389540454317, guid: d1641db9f0fcff048999e90726db6998, type: 3}
  m_PrefabInstance: {fileID: 881206159237535824}
  m_PrefabAsset: {fileID: 0}
--- !u!4 &4875342973753798771 stripped
Transform:
  m_CorrespondingSourceObject: {fileID: 5733679152754059299, guid: d1641db9f0fcff048999e90726db6998, type: 3}
  m_PrefabInstance: {fileID: 881206159237535824}
  m_PrefabAsset: {fileID: 0}
