%YAML 1.1
%TAG !u! tag:unity3d.com,2011:
--- !u!114 &11400000
MonoBehaviour:
  m_ObjectHideFlags: 0
  m_CorrespondingSourceObject: {fileID: 0}
  m_PrefabInstance: {fileID: 0}
  m_PrefabAsset: {fileID: 0}
  m_GameObject: {fileID: 0}
  m_Enabled: 1
  m_EditorHideFlags: 0
  m_Script: {fileID: 11500000, guid: b868391c57461a5438861937681e56c5, type: 3}
  m_Name: Navigating
  m_EditorClassIdentifier: 
  image: {fileID: 0}
  displayName: Navigating
  type: 0
  description: {fileID: 4900000, guid: 8d1852d824ca2e844819476b8e22d23e, type: 3}
