%YAML 1.1
%TAG !u! tag:unity3d.com,2011:
--- !u!114 &11400000
MonoBehaviour:
  m_ObjectHideFlags: 0
  m_CorrespondingSourceObject: {fileID: 0}
  m_PrefabInstance: {fileID: 0}
  m_PrefabAsset: {fileID: 0}
  m_GameObject: {fileID: 0}
  m_Enabled: 1
  m_EditorHideFlags: 0
  m_Script: {fileID: 11500000, guid: b868391c57461a5438861937681e56c5, type: 3}
  m_Name: WinningAndLosing
  m_EditorClassIdentifier: 
  image: {fileID: 0}
  displayName: Winning and Losing
  type: 0
  description: {fileID: 4900000, guid: 9ed07a5a7d19a5d4584b0f76e713c27e, type: 3}
